<?xml version="1.0" encoding="UTF-8" standalone="no"?>
<!-- Created with Inkscape (http://www.inkscape.org/) -->

<svg
   xmlns:dc="http://purl.org/dc/elements/1.1/"
   xmlns:cc="http://creativecommons.org/ns#"
   xmlns:rdf="http://www.w3.org/1999/02/22-rdf-syntax-ns#"
   xmlns:svg="http://www.w3.org/2000/svg"
   xmlns="http://www.w3.org/2000/svg"
   xmlns:sodipodi="http://sodipodi.sourceforge.net/DTD/sodipodi-0.dtd"
   xmlns:inkscape="http://www.inkscape.org/namespaces/inkscape"
   width="400"
   height="300"
   viewBox="0 0 105.83333 79.375002"
   version="1.1"
   id="svg8"
   sodipodi:docname="2017-09-11-rum-presentation-alice-and-bob-gear.svg"
   inkscape:version="0.92.2 5c3e80d, 2017-08-06">
  <defs
     id="defs2" />
  <sodipodi:namedview
     id="base"
     pagecolor="#ffffff"
     bordercolor="#666666"
     borderopacity="1.0"
     inkscape:pageopacity="0.0"
     inkscape:pageshadow="2"
     inkscape:zoom="3.6203867"
     inkscape:cx="314.11613"
     inkscape:cy="99.846324"
     inkscape:document-units="mm"
     inkscape:current-layer="layer1"
     showgrid="true"
     units="px"
     inkscape:window-width="3200"
     inkscape:window-height="1725"
     inkscape:window-x="0"
     inkscape:window-y="38"
     inkscape:window-maximized="1">
    <inkscape:grid
       type="xygrid"
       id="grid931" />
  </sodipodi:namedview>
  <metadata
     id="metadata5">
    <rdf:RDF>
      <cc:Work
         rdf:about="">
        <dc:format>image/svg+xml</dc:format>
        <dc:type
           rdf:resource="http://purl.org/dc/dcmitype/StillImage" />
        <dc:title></dc:title>
        <dc:contributor>
          <cc:Agent>
            <dc:title>girl and boy by johnny_automatic available at https://openclipart.org/detail/827/girl-and-boy under CC0.
Gears by azieser available at https://openclipart.org/detail/182290/gears under CC0.
Light bulb on off by bartovan avaiable at https://openclipart.org/detail/220988/light-bulb-on-off under CC0.</dc:title>
          </cc:Agent>
        </dc:contributor>
      </cc:Work>
    </rdf:RDF>
  </metadata>
  <g
     inkscape:label="Layer 1"
     inkscape:groupmode="layer"
     id="layer1"
     transform="translate(0,-217.62498)">
    <g
       id="g1565">
      <g
         transform="matrix(0.15211172,0,0,0.15211172,31.10803,241.43765)"
         id="g891">
        <path
           id="path887"
           d="m 25.579,266.53 c -0.213,-0.135 -0.431,-0.262 -0.643,-0.4 -0.298,2.33 -0.016,2.19 0.643,0.4 z"
           inkscape:connector-curvature="0" />
        <path
           id="path889"
           d="m 79.647,306.05 4.286,-32.587 c 21.734,-3.592 39.307,-10.894 39.307,-10.894 -29.92,-81.21 -31.344,-141.73 -31.344,-141.73 0,0 -4.393,2.038 -10.91,3.013 0.906,-4.5 2.707,-9.722 6.279,-13.543 7.451,-7.981 32.409,-6.593 18.455,-40.989 l 3.105,-0.339 c 2.229,-0.188 3.831,-2.707 3.567,-5.629 -0.257,-2.878 -2.233,-5.066 -4.433,-4.928 l -0.001,-0.008 -0.052,0.005 c -0.005,0 -0.01,-10e-4 -0.016,0 -0.008,0 -0.015,0.004 -0.022,0.005 l -3.345,0.367 c 0.037,-9.661 -0.991,-26.745 -8.013,-36.184 19.788,-5.894 16.017,13.47 16.017,13.47 l 4.298,2.109 C 123.295,3.458 64.506,-2.641 39.067,0.867 13.635,4.381 13.442,27.865 13.442,27.865 -0.709,31.373 0.012,97.306 0.012,97.306 c 0,0 15.585,4.915 31.176,4.211 2.158,-0.097 4.141,-0.396 5.978,-0.855 4.201,2.885 9.671,4.917 16.772,4.917 2.349,0 4.694,5.526 4.682,15.512 -2.217,-0.997 -4.434,-2.254 -6.612,-3.846 0,0 -35.364,43.737 -31.061,93.522 0,0 -0.381,4.294 6.454,5.927 v 7.92 c 0,0 -1.546,2.771 -2.785,3.634 -0.48,-0.2 -0.994,-0.852 -1.52,-2.228 0,-5.992 -2.582,-9.285 -7.575,-3.785 -0.332,0.222 -0.617,0.538 -0.836,0.972 -3.681,4.538 -0.567,12.874 6.656,17.551 2.857,1.94 6.458,3.24 10.705,3.399 -2.604,9.66 -5.211,18.979 -6.461,22.368 7.312,4.606 15.822,7.12 24.718,8.21 l -0.862,54.755 c 0,0 -3.123,9.374 6.354,7.634 0,0 15.521,15.8 40.861,9.099 v -6.533 c -8.676,-7.6 -29.611,-8.366 -35.232,-15.41 l 6.28,-49.022 c 0.177,-0.009 0.354,-0.021 0.532,-0.029 l -0.567,36.032 c 0,0 -3.123,9.375 6.353,7.635 0,0 15.523,15.8 40.864,9.099 v -6.531 c -8.68,-7.59 -29.611,-8.35 -35.233,-15.4 z"
           inkscape:connector-curvature="0" />
      </g>
      <path
         style="stroke-width:0.15211172"
         id="path893"
         d="m 73.180611,245.84767 c 0,0 -0.03057,-3.62725 -3.95886,-4.16938 -3.92722,-0.54258 -12.647633,0.20855 -11.650085,5.57003 l 0.663816,-0.32491 c 0,0 -0.716142,-2.49585 2.071001,-1.80952 -1.0301,1.45936 -1.196206,3.99262 -1.193012,5.46674 -0.308026,0.029 -0.573918,0.33541 -0.611489,0.74732 -0.03636,0.41177 0.171125,0.75904 0.470633,0.83936 -2.212769,5.37806 1.649196,5.17332 2.806005,6.41166 0.49269,0.52706 0.765579,1.22602 0.917995,1.86458 -0.965758,-0.0683 -1.633072,-0.23881 -1.633072,-0.23881 0,0 -3.042082,3.41019 -3.374903,10.26054 -0.33282,6.85035 0.598712,0.35123 1.631855,0.72314 v 16.17252 c 0,0 -1.188601,0.83661 -3.927373,0.32476 v 1.40946 c 0,0 4.468739,1.06296 7.553412,0.35655 v 0.9148 c -1.188601,1.48842 -5.036267,2.57282 -5.036267,2.57282 v 1.38057 c 7.110919,0.32445 8.631732,-1.92285 8.631732,-1.92285 1.853481,0.21752 3.484879,-0.32475 3.484879,-0.32475 l 0.103893,-12.82698 c 2.30936,0.0122 3.678669,-2.21718 2.85681,-3.22963 -0.856998,-1.05475 -1.299947,-0.54213 -1.299947,0.43382 0,0.97564 -0.66488,-0.21661 -0.66488,-0.21661 v -1.46559 c 0.690131,-0.31016 0.997548,-0.67356 0.997548,-0.67356 0.664729,-7.68803 -3.514541,-15.62339 -3.514541,-15.62339 -0.648148,0.77364 -1.455253,1.2607 -2.297495,1.56234 0.03133,-1.40338 0.372065,-2.18356 0.717054,-2.18356 3.802945,0 4.59271,-3.76492 4.59271,-3.76492 0,0 1.752631,0.12169 2.185541,-0.94614 0.845589,-2.08149 0.213565,-2.60278 -0.452837,-2.68097 0.808018,-0.16595 1.338735,-0.33236 1.338735,-0.33236 0,0 0.778812,-3.73617 -1.405512,-4.27845 z"
         inkscape:connector-curvature="0" />
    </g>
    <g
       id="g1669"
       transform="matrix(0.02525127,0,0,0.02525127,45.832296,219.34771)"
       style="fill:#4d4d4d;stroke:#000000">
      <path
         id="path1651"
         d="m 293.08,263.76 -34.575,0.002 h -3.956 l -2.142,-1.874 c -1.761,-6.442 -4.271,-12.574 -7.432,-18.297 l 0.278,-3.623 3.315,-3.108 23.619,-23.619 2.382,-13.361 -17.506,-17.506 -13.881,1.447 -24.448,24.449 -2.797,2.796 -2.845,0.19 c -5.683,-3.245 -11.782,-5.842 -18.197,-7.693 l -2.356,-2.748 0.147,-4.542 v -33.401 l -7.765,-11.135 h -24.758 l -8.79,10.842 v 38.529 l -1.874,2.141 c -6.442,1.762 -12.574,4.271 -18.297,7.434 l -3.623,-0.279 -3.107,-3.314 -23.619,-23.619 -13.363,-2.383 -17.477,17.51 1.45,13.881 24.448,24.448 2.796,2.797 0.19,2.844 c -3.245,5.683 -5.842,11.781 -7.693,18.197 l -2.748,2.355 -4.542,-0.146 H 50.512 l -11.134,7.764 v 24.758 l 10.841,8.791 h 38.529 l 2.142,1.873 c 1.761,6.442 4.271,12.574 7.433,18.297 l -0.279,3.623 -3.314,3.108 -23.62,23.62 -2.383,13.363 17.506,17.506 13.882,-1.449 24.447,-24.448 2.796,-2.796 2.846,-0.19 c 5.682,3.244 11.78,5.841 18.195,7.692 l 2.356,2.749 -0.146,4.542 v 33.402 l 7.764,11.133 h 24.758 l 8.792,-10.84 -0.001,-34.575 v -3.955 l 1.875,-2.142 c 6.441,-1.761 12.572,-4.271 18.295,-7.433 l 3.623,0.279 3.109,3.314 23.618,23.619 13.362,2.383 17.506,-17.507 -1.448,-13.882 -24.448,-24.446 -2.797,-2.798 -0.19,-2.845 c 3.245,-5.683 5.841,-11.781 7.693,-18.196 l 2.749,-2.356 4.542,0.146 h 33.402 l 11.134,-7.764 v -24.74 l -10.84,-8.79 z m -121.44,44.76 c -13.53,0 -24.498,-10.968 -24.498,-24.497 0,-13.529 10.968,-24.497 24.498,-24.497 13.529,0 24.498,10.968 24.498,24.497 0,13.529 -10.97,24.5 -24.5,24.5 z"
         inkscape:connector-curvature="0"
         style="fill:#4d4d4d" />
      <path
         id="path1653"
         d="m 171.64,201.4 c -45.63,0 -82.622,36.991 -82.622,82.622 0,45.631 36.992,82.622 82.622,82.622 45.63,0 82.622,-36.991 82.622,-82.622 0,-45.631 -36.99,-82.62 -82.62,-82.62 z m 0,142.42 c -33.026,0 -59.799,-26.773 -59.799,-59.799 0,-33.026 26.773,-59.799 59.799,-59.799 33.026,0 59.798,26.772 59.798,59.799 0,33.02 -26.77,59.8 -59.8,59.8 z"
         inkscape:connector-curvature="0"
         style="fill:#4d4d4d" />
      <path
         id="path1655"
         d="m 171.64,259.3 c -13.652,0 -24.72,11.067 -24.72,24.72 0,13.653 11.067,24.719 24.72,24.719 13.652,0 24.72,-11.066 24.72,-24.719 0,-13.653 -11.07,-24.72 -24.72,-24.72 z m 0,42.61 c -9.881,0 -17.891,-8.01 -17.891,-17.891 0,-9.882 8.01,-17.892 17.891,-17.892 9.881,0 17.892,8.01 17.892,17.892 0,9.88 -8.01,17.89 -17.89,17.89 z"
         inkscape:connector-curvature="0"
         style="fill:#4d4d4d" />
      <path
         id="path1657"
         d="m 510.89,222.78 -34.575,0.001 h -3.955 l -2.142,-1.874 c -1.762,-6.442 -4.271,-12.574 -7.433,-18.297 l 0.278,-3.623 3.315,-3.108 23.619,-23.619 2.382,-13.361 -17.506,-17.506 -13.881,1.448 -24.448,24.448 -2.797,2.796 -2.845,0.19 c -5.683,-3.245 -11.781,-5.842 -18.197,-7.693 l -2.355,-2.748 0.146,-4.542 v -33.401 l -7.765,-11.135 h -24.758 l -8.79,10.842 v 38.529 l -1.873,2.141 c -6.442,1.762 -12.575,4.271 -18.298,7.434 l -3.622,-0.279 -3.108,-3.314 -23.618,-23.619 -13.363,-2.383 -17.507,17.507 1.45,13.881 24.447,24.448 2.797,2.797 0.189,2.845 c -3.244,5.682 -5.841,11.78 -7.692,18.197 l -2.748,2.355 -4.542,-0.146 h -33.4 l -11.133,7.764 v 24.758 l 10.84,8.791 h 38.529 l 2.143,1.873 c 1.761,6.442 4.271,12.574 7.432,18.297 l -0.278,3.623 -3.314,3.108 -23.619,23.618 -2.383,13.363 17.507,17.506 13.882,-1.449 24.447,-24.447 2.796,-2.797 2.846,-0.189 c 5.683,3.244 11.78,5.84 18.195,7.691 l 2.357,2.75 -0.146,4.541 v 33.402 l 7.764,11.133 h 24.758 l 8.792,-10.84 -0.002,-34.574 v -3.955 l 1.875,-2.143 c 6.441,-1.761 12.572,-4.271 18.295,-7.433 l 3.624,0.279 3.108,3.314 23.618,23.619 13.362,2.383 17.506,-17.507 -1.448,-13.882 -24.448,-24.446 -2.797,-2.797 -0.189,-2.846 c 3.244,-5.683 5.841,-11.781 7.693,-18.196 l 2.748,-2.356 4.542,0.146 h 33.401 l 11.134,-7.764 v -24.758 l -10.83,-8.76 z m -121.45,44.76 c -13.53,0 -24.498,-10.968 -24.498,-24.497 0,-13.529 10.968,-24.497 24.498,-24.497 13.529,0 24.497,10.968 24.497,24.497 0,13.529 -10.97,24.5 -24.5,24.5 z"
         inkscape:connector-curvature="0"
         style="fill:#4d4d4d" />
      <path
         id="path1659"
         d="m 389.44,160.42 c -45.631,0 -82.622,36.991 -82.622,82.622 0,45.631 36.991,82.622 82.622,82.622 45.63,0 82.621,-36.991 82.621,-82.622 0,-45.631 -36.99,-82.62 -82.62,-82.62 z m 0,142.42 c -33.026,0 -59.8,-26.772 -59.8,-59.799 0,-33.027 26.773,-59.799 59.8,-59.799 33.027,0 59.798,26.772 59.798,59.799 0,33.027 -26.77,59.8 -59.8,59.8 z"
         inkscape:connector-curvature="0"
         style="fill:#4d4d4d" />
      <path
         id="path1661"
         d="m 389.44,218.32 c -13.652,0 -24.72,11.067 -24.72,24.72 0,13.653 11.067,24.72 24.72,24.72 13.653,0 24.72,-11.067 24.72,-24.72 0,-13.653 -11.07,-24.72 -24.72,-24.72 z m 0,42.61 c -9.881,0 -17.891,-8.01 -17.891,-17.891 0,-9.882 8.01,-17.892 17.891,-17.892 9.882,0 17.892,8.01 17.892,17.892 0,9.88 -8.01,17.89 -17.89,17.89 z"
         inkscape:connector-curvature="0"
         style="fill:#4d4d4d" />
      <path
         id="path1663"
         d="m 334.06,481.11 -34.574,10e-4 h -3.956 l -2.141,-1.873 c -1.762,-6.442 -4.271,-12.574 -7.433,-18.298 l 0.278,-3.622 3.314,-3.108 23.62,-23.619 2.382,-13.362 -17.507,-17.506 -13.881,1.448 -24.448,24.448 -2.797,2.797 -2.844,0.189 c -5.683,-3.244 -11.782,-5.841 -18.197,-7.692 l -2.356,-2.749 0.146,-4.541 v -33.402 l -7.764,-11.134 h -24.758 l -8.79,10.841 v 38.529 l -1.874,2.142 c -6.442,1.762 -12.575,4.271 -18.297,7.433 l -3.623,-0.278 -3.108,-3.314 -23.619,-23.619 -13.363,-2.383 -17.506,17.507 1.45,13.881 24.448,24.448 2.796,2.796 0.189,2.845 c -3.244,5.683 -5.841,11.781 -7.693,18.197 l -2.748,2.355 -4.542,-0.146 H 91.459 l -11.133,7.764 v 24.758 l 10.841,8.791 34.574,-10e-4 h 3.955 l 2.142,1.874 c 1.761,6.442 4.271,12.574 7.433,18.297 l -0.278,3.623 -3.315,3.107 -23.619,23.619 -2.383,13.362 17.506,17.507 13.882,-1.449 24.447,-24.448 2.796,-2.796 2.846,-0.19 c 5.682,3.244 11.78,5.841 18.195,7.692 l 2.357,2.749 -0.146,4.542 v 33.401 l 7.764,11.134 h 24.758 l 8.792,-10.841 -10e-4,-34.574 v -3.955 l 1.875,-2.142 c 6.441,-1.762 12.573,-4.271 18.295,-7.433 l 3.624,0.278 3.109,3.315 23.619,23.619 13.361,2.383 17.507,-17.507 -1.449,-13.882 -24.447,-24.446 -2.797,-2.798 -0.19,-2.846 c 3.245,-5.682 5.842,-11.78 7.693,-18.195 l 2.749,-2.356 4.541,0.146 h 33.402 l 11.133,-7.764 v -24.758 l -10.84,-8.78 z m -121.44,44.76 c -13.53,0 -24.498,-10.968 -24.498,-24.498 0,-13.529 10.968,-24.497 24.498,-24.497 13.529,0 24.498,10.968 24.498,24.497 -0.01,13.53 -10.97,24.5 -24.5,24.5 z"
         inkscape:connector-curvature="0"
         style="fill:#4d4d4d" />
      <path
         id="path1665"
         d="m 212.62,418.75 c -45.631,0 -82.622,36.991 -82.622,82.622 0,45.63 36.991,82.621 82.622,82.621 45.63,0 82.622,-36.991 82.622,-82.621 0,-45.63 -36.99,-82.62 -82.62,-82.62 z m 0,142.42 c -33.026,0 -59.799,-26.772 -59.799,-59.798 0,-33.026 26.773,-59.8 59.799,-59.8 33.026,0 59.798,26.773 59.798,59.8 0,33.03 -26.78,59.8 -59.8,59.8 z"
         inkscape:connector-curvature="0"
         style="fill:#4d4d4d" />
      <path
         id="path1667"
         d="m 212.62,476.66 c -13.652,0 -24.72,11.066 -24.72,24.72 0,13.652 11.067,24.719 24.72,24.719 13.652,0 24.72,-11.066 24.72,-24.719 0,-13.66 -11.07,-24.72 -24.72,-24.72 z m 0,42.61 c -9.881,0 -17.891,-8.01 -17.891,-17.891 0,-9.882 8.01,-17.892 17.891,-17.892 9.881,0 17.891,8.01 17.891,17.892 0,9.88 -8.01,17.89 -17.89,17.89 z"
         inkscape:connector-curvature="0"
         style="fill:#4d4d4d" />
    </g>
  </g>
</svg>
